{
    "Postings": [{
        "Datum": "18.05.2021",
        "Uhrzeit": "10:45:33",
        "Text": "This is a sample post",
        "Verfasser": "Max Mustermann",
        "Kategorien": ["Testing", "Internal"]
    }, {
        "Datum": "19.05.2021",
        "Uhrzeit": "11:20:00",
        "Text": "Some cool stuff going on here",
        "Verfasser": "Moritz Musterfrau",
        "Kategorien": ["Gaming", "Entertainment"],
        "Bild": "./src/images/gta5-sample.png"
    }, {
        "Datum": "22.05.2021",
        "Uhrzeit": "06:45:21",
        "Text": "About the science of modern Makeup.",
        "Verfasser": "Laura Sophie Binder",
        "Kategorien": ["Lecture", "Science"]
    }]
}